{
    "_comment": "Virtualbox and HyperV builders are operational. TODO: Implement post configuration: updates and config mgmt tooling",
    "description": "Build VM templates for Virtualbox and Hyper-V, based on clean 'Windows 2016 Standard' ISO",
    "min_packer_version": "1.6.0",
    "variables": {},
    "builders": [
        {
            "type": "hyperv-iso",
            "headless": true,
            "iso_url": "https://software-download.microsoft.com/download/pr/Windows_Server_2016_Datacenter_EVAL_en-us_14393_refresh.ISO",
            "iso_checksum": "sha256:1ce702a578a3cb1ac3d14873980838590f06d5b7101c5daaccbac9d73f1fb50f",
            "generation": 2,
            "vm_name": "WindowsServer2016",
            "output_directory": "artifacts/windows/2016-standard-amd64/hyperv/",
            "disk_size": 40960,
            "cpus": 2,
            "memory": 2048,
            "enable_dynamic_memory": false,
            "enable_secure_boot": true,
            "secure_boot_template": "MicrosoftWindows",
            "configuration_version": "8.0",
            "secondary_iso_images": [
                "files/windows/2016-standard-amd64/iso/secondary.iso"
            ],
            "switch_name": "Test",
            "boot_wait": "2s",
            "boot_command": [
                "<spacebar>"
            ],
            "skip_export": false,
            "communicator": "winrm",
            "winrm_username": "automation",
            "winrm_password": "packer",
            "winrm_use_ssl": true,
            "winrm_insecure": true,
            "winrm_timeout": "4h"
        },
        {
            "type": "virtualbox-iso",
            "guest_os_type": "Windows2016_64",
            "guest_additions_mode": "disable",
            "headless": true,
            "iso_url": "https://software-download.microsoft.com/download/pr/Windows_Server_2016_Datacenter_EVAL_en-us_14393_refresh.ISO",
            "iso_checksum": "sha256:1ce702a578a3cb1ac3d14873980838590f06d5b7101c5daaccbac9d73f1fb50f",
            "iso_interface": "sata",
            "vm_name": "WindowsServer2016",
            "output_directory": "artifacts/windows/2016-standard-amd64/virtualbox/",
            "disk_size": 40960,
            "hard_drive_interface": "sata",
            "cpus": 2,
            "memory": 2048,
            "vboxmanage": [
                [
                    "modifyvm",
                    "{{.Name}}",
                    "--firmware",
                    "EFI"
                ],
                [
                    "modifyvm",
                    "{{.Name}}",
                    "--vram",
                    "64"
                ],
                [
                    "storageattach",
                    "{{.Name}}",
                    "--storagectl",
                    "SATA Controller",
                    "--type",
                    "dvddrive",
                    "--port",
                    "2",
                    "--medium",
                    "files/windows/2016-standard-amd64/iso/secondary.iso"
                ]
            ],
            "boot_wait": "2s",
            "boot_command": [
                "<spacebar>"
            ],
            "communicator": "winrm",
            "winrm_username": "automation",
            "winrm_password": "packer",
            "winrm_use_ssl": true,
            "winrm_insecure": true,
            "winrm_timeout": "4h",
            "export_opts": [
                "--manifest",
                "--vsys", "0",
                "--description", "Windows Server 2016 SERVERSTANDARD",
                "--version", "0.1.0"
            ]
        }
    ],
    "provisioners": [
        {
            "type": "powershell",
            "scripts": [
                "files/windows/2016-standard-amd64/scripts/setup.ps1"
            ]
        },
        {
            "type": "windows-restart",
            "restart_timeout": "5m"
        },
        {
            "type": "windows-update"
        },
        {
            "type": "powershell",
            "scripts": [
                "files/windows/2016-standard-amd64/scripts/cleanup.ps1"
            ]
        },
        {
            "type": "windows-shell",
            "script": "files/windows/2016-standard-amd64/scripts/sysprep.bat"
        }
    ],
    "post-processors": []
}